This is BibTeX, Version 0.99d (TeX Live 2016)
Capacity: max_strings=35307, hash_size=35307, hash_prime=30011
The top-level auxiliary file: main.aux
The style file: IEEE.bst
Stuff after "}"---line 84 of file main.aux
 : \citation{{Chang:2006:BDS:1267308.1267323
 :                                          }}
I'm skipping whatever remains of this command
Database file #1: citations.bib
Warning--I'm ignoring Chang:2006:BDS:1267308.1267323's extra "address" field
--line 114 of file citations.bib
I was expecting a `,' or a `}'---line 139 of file citations.bib
 : 
 : address  = {Gyeongju, Korea},
(Error may have been on previous line)
I'm skipping whatever remains of this entry
Warning--empty booktitle in Lakshman:2010:CDS:1773912.1773922
Warning--can't use both volume and number fields in Lakshman:2010:CDS:1773912.1773922
Warning--can't use both volume and number fields in Xia:2010:SBP:2211317.2211361
Warning--empty booktitle in Levy:1990:DFS:98163.98169
Warning--can't use both volume and number fields in Levy:1990:DFS:98163.98169
Warning--empty booktitle in Nelson:1988:CSN:35037.42183
Warning--can't use both volume and number fields in Nelson:1988:CSN:35037.42183
Too many commas in name 1 of "Mary G. Baker, John H. Hartman, Michael D. Kupfer, Ken W. Shirriff, John K. OusterhoutJohn H. Hartman, Michael D. Kupfer, Ken W. Shirriff, John K. Ousterhout" for entry Baker:Measurements
while executing---line 1012 of file IEEE.bst
Too many commas in name 1 of "Mary G. Baker, John H. Hartman, Michael D. Kupfer, Ken W. Shirriff, John K. OusterhoutJohn H. Hartman, Michael D. Kupfer, Ken W. Shirriff, John K. Ousterhout" for entry Baker:Measurements
while executing---line 1012 of file IEEE.bst
Too many commas in name 1 of "Mary G. Baker, John H. Hartman, Michael D. Kupfer, Ken W. Shirriff, John K. OusterhoutJohn H. Hartman, Michael D. Kupfer, Ken W. Shirriff, John K. Ousterhout" for entry Baker:Measurements
while executing---line 1012 of file IEEE.bst
Too many commas in name 1 of "Mary G. Baker, John H. Hartman, Michael D. Kupfer, Ken W. Shirriff, John K. OusterhoutJohn H. Hartman, Michael D. Kupfer, Ken W. Shirriff, John K. Ousterhout" for entry Baker:Measurements
while executing---line 1012 of file IEEE.bst
Too many commas in name 1 of "Mary G. Baker, John H. Hartman, Michael D. Kupfer, Ken W. Shirriff, John K. OusterhoutJohn H. Hartman, Michael D. Kupfer, Ken W. Shirriff, John K. Ousterhout" for entry Baker:Measurements
while executing---line 1012 of file IEEE.bst
Warning--there's a number but no series in Baker:Measurements
Name 1 in "Eduardo Pinheiro, Ricardo Bianchini, Enrique V. Carrera, and Taliver Heath" has a comma at the end for entry balancing
while executing---line 1012 of file IEEE.bst
Warning--empty booktitle in balancing
Warning--can't use both volume and number fields in Rabl:2012:SBD:2367502.2367512
You've used 17 entries,
            1838 wiz_defined-function locations,
            595 strings with 8208 characters,
and the built_in function-call counts, 6219 in all, are:
= -- 562
> -- 240
< -- 26
+ -- 86
- -- 69
* -- 482
:= -- 826
add.period$ -- 17
call.type$ -- 17
change.case$ -- 17
chr.to.int$ -- 0
cite$ -- 27
duplicate$ -- 328
empty$ -- 580
format.name$ -- 69
if$ -- 1485
int.to.chr$ -- 0
int.to.str$ -- 17
missing$ -- 18
newline$ -- 88
num.names$ -- 17
pop$ -- 89
preamble$ -- 1
purify$ -- 0
quote$ -- 0
skip$ -- 228
stack$ -- 0
substring$ -- 445
swap$ -- 163
text.length$ -- 26
text.prefix$ -- 0
top$ -- 0
type$ -- 0
warning$ -- 10
while$ -- 60
width$ -- 19
write$ -- 207
(There were 8 error messages)
