\relax 
\bibstyle{IEEE}
\citation{Chang:2006:BDS:1267308.1267323}
\citation{DeCandia:2007:DAH:1294261.1294281}
\citation{Weatherspoon:2007:AES:1272996.1273035}
\citation{6753779}
\citation{Lakshman:2010:CDS:1773912.1773922}
\citation{846052}
\citation{Xia:2010:SBP:2211317.2211361}
\citation{Shvachko:2010:HDF:1913798.1914427}
\citation{Weil:2006:CSH:1298455.1298485}
\providecommand \oddpage@label [2]{}
\@writefile{toc}{\contentsline {section}{\numberline {I}Introduction and Motivation}{1}}
\newlabel{sec:intro}{{I}{1}}
\citation{Levy:1990:DFS:98163.98169}
\citation{Levy:1990:DFS:98163.98169}
\citation{Levy:1990:DFS:98163.98169}
\citation{Levy:1990:DFS:98163.98169}
\citation{Levy:1990:DFS:98163.98169}
\citation{Levy:1990:DFS:98163.98169}
\citation{Levy:1990:DFS:98163.98169}
\citation{Levy:1990:DFS:98163.98169}
\citation{Levy:1990:DFS:98163.98169}
\citation{4623994}
\citation{4623994}
\citation{4623994}
\citation{4623994}
\citation{4623994}
\citation{4623994}
\@writefile{toc}{\contentsline {section}{\numberline {II}Distributed File System Definitions and Core Issues}{2}}
\newlabel{sec:definitions}{{II}{2}}
\@writefile{toc}{\contentsline {subsection}{\numberline {II-A}Distributed File Systems Defined}{2}}
\newlabel{subsec:DFSdef}{{II-A}{2}}
\@writefile{toc}{\contentsline {subsection}{\numberline {II-B}Architectures with Scalability}{2}}
\newlabel{subsec:architecture}{{II-B}{2}}
\citation{4623994}
\citation{4623994}
\citation{4623994}
\citation{4623994}
\citation{Nelson:1988:CSN:35037.42183}
\citation{Nelson:1988:CSN:35037.42183}
\citation{Nelson:1988:CSN:35037.42183}
\citation{Nelson:1988:CSN:35037.42183}
\citation{Nelson:1988:CSN:35037.42183}
\citation{4623994}
\@writefile{toc}{\contentsline {subsection}{\numberline {II-C}Transparency}{3}}
\newlabel{subsec:transparency}{{II-C}{3}}
\@writefile{toc}{\contentsline {subsection}{\numberline {II-D}Fault Tolerance}{3}}
\newlabel{subsec:faulttolerance}{{II-D}{3}}
\citation{4623994}
\citation{4623994}
\citation{4623994}
\citation{4623994}
\citation{Baker:Measurements}
\citation{balancing}
\citation{balancing}
\citation{Chang:2006:BDS:1267308.1267323}
\citation{DeCandia:2007:DAH:1294261.1294281}
\citation{Weatherspoon:2007:AES:1272996.1273035}
\citation{6753779}
\citation{Lakshman:2010:CDS:1773912.1773922}
\citation{846052}
\citation{Xia:2010:SBP:2211317.2211361}
\citation{Shvachko:2010:HDF:1913798.1914427}
\citation{Weil:2006:CSH:1298455.1298485}
\citation{Chang:2006:BDS:1267308.1267323}
\citation{Chang:2006:BDS:1267308.1267323}
\citation{Chang:2006:BDS:1267308.1267323}
\citation{Chang:2006:BDS:1267308.1267323}
\citation{Chang:2006:BDS:1267308.1267323}
\@writefile{toc}{\contentsline {section}{\numberline {III}Distributed File Systems Surveyed}{4}}
\newlabel{sec:survey}{{III}{4}}
\@writefile{toc}{\contentsline {subsection}{\numberline {III-A}Google Bigtable}{4}}
\newlabel{subsec:Bigtable}{{III-A}{4}}
\@writefile{toc}{\contentsline {subsubsection}{\numberline {III-A.1}Bigtable Architecture}{4}}
\newlabel{subsubsect:BigtableArch}{{III-A.1}{4}}
\citation{Coulouris:2011:DSC:2029110}
\citation{Chang:2006:BDS:1267308.1267323}
\citation{Chang:2006:BDS:1267308.1267323}
\citation{Chang:2006:BDS:1267308.1267323}
\citation{Chang:2006:BDS:1267308.1267323}
\citation{Chang:2006:BDS:1267308.1267323}
\citation{Chang:2006:BDS:1267308.1267323}
\citation{{Chang:2006:BDS:1267308.1267323}}
\citation{Chang:2006:BDS:1267308.1267323}
\citation{Chang:2006:BDS:1267308.1267323}
\citation{Chang:2006:BDS:1267308.1267323}
\citation{Chang:2006:BDS:1267308.1267323}
\citation{Chang:2006:BDS:1267308.1267323}
\citation{Chang:2006:BDS:1267308.1267323}
\citation{Chang:2006:BDS:1267308.1267323}
\@writefile{lof}{\contentsline {figure}{\numberline {1}{\ignorespaces Google File System's Architecture.}}{5}}
\@writefile{lof}{\contentsline {figure}{\numberline {2}{\ignorespaces Google Bigtable's Architecture.}}{5}}
\@writefile{toc}{\contentsline {subsubsection}{\numberline {III-A.2}API and Client Access}{5}}
\newlabel{subsubsect:bigtableAPI}{{III-A.2}{5}}
\@writefile{toc}{\contentsline {subsubsection}{\numberline {III-A.3}Cache Consistency}{5}}
\newlabel{subsubsect:BigtableCache}{{III-A.3}{5}}
\citation{Chang:2006:BDS:1267308.1267323}
\citation{Chang:2006:BDS:1267308.1267323}
\citation{Chang:2006:BDS:1267308.1267323}
\citation{Chang:2006:BDS:1267308.1267323}
\citation{Chang:2006:BDS:1267308.1267323}
\citation{Chang:2006:BDS:1267308.1267323}
\citation{Chang:2006:BDS:1267308.1267323}
\citation{Chang:2006:BDS:1267308.1267323}
\citation{DeCandia:2007:DAH:1294261.1294281}
\citation{DeCandia:2007:DAH:1294261.1294281}
\citation{DeCandia:2007:DAH:1294261.1294281}
\@writefile{toc}{\contentsline {subsubsection}{\numberline {III-A.4}Replication and Synchronization}{6}}
\newlabel{subsubsect:BigtableSync}{{III-A.4}{6}}
\@writefile{toc}{\contentsline {subsubsection}{\numberline {III-A.5}Load balancing}{6}}
\newlabel{subsubsect:BigtableLoad}{{III-A.5}{6}}
\@writefile{toc}{\contentsline {subsubsection}{\numberline {III-A.6}Fault Detection}{6}}
\newlabel{subsubsect:BigtableFault}{{III-A.6}{6}}
\@writefile{toc}{\contentsline {subsection}{\numberline {III-B}Amazon Dynamo}{6}}
\newlabel{subsec:AmazonDynamo}{{III-B}{6}}
\@writefile{toc}{\contentsline {subsubsection}{\numberline {III-B.1}Dynamo Architecture}{6}}
\newlabel{subsubsec:DynamoArchitecture}{{III-B.1}{6}}
\citation{DeCandia:2007:DAH:1294261.1294281}
\citation{DeCandia:2007:DAH:1294261.1294281}
\citation{DeCandia:2007:DAH:1294261.1294281}
\citation{DeCandia:2007:DAH:1294261.1294281}
\citation{DeCandia:2007:DAH:1294261.1294281}
\citation{DeCandia:2007:DAH:1294261.1294281}
\citation{DeCandia:2007:DAH:1294261.1294281}
\citation{DeCandia:2007:DAH:1294261.1294281}
\citation{DeCandia:2007:DAH:1294261.1294281}
\citation{DeCandia:2007:DAH:1294261.1294281}
\citation{DeCandia:2007:DAH:1294261.1294281}
\citation{DeCandia:2007:DAH:1294261.1294281}
\@writefile{lof}{\contentsline {figure}{\numberline {3}{\ignorespaces Service-oriented architecture of Amazon's platform.}}{7}}
\@writefile{toc}{\contentsline {subsubsection}{\numberline {III-B.2}API and Client Access}{7}}
\newlabel{subsubsect:dynamoAPI}{{III-B.2}{7}}
\@writefile{lof}{\contentsline {figure}{\numberline {4}{\ignorespaces Replication of keys in Dynamo ring.}}{7}}
\@writefile{toc}{\contentsline {subsubsection}{\numberline {III-B.3}Cache Consistency}{7}}
\newlabel{subsubsect:DynamoCache}{{III-B.3}{7}}
\@writefile{toc}{\contentsline {subsubsection}{\numberline {III-B.4}Replication and Synchronization}{7}}
\newlabel{subsubsect:DynamoSync}{{III-B.4}{7}}
\citation{DeCandia:2007:DAH:1294261.1294281}
\citation{DeCandia:2007:DAH:1294261.1294281}
\citation{DeCandia:2007:DAH:1294261.1294281}
\citation{DeCandia:2007:DAH:1294261.1294281}
\citation{DeCandia:2007:DAH:1294261.1294281}
\citation{DeCandia:2007:DAH:1294261.1294281}
\citation{DeCandia:2007:DAH:1294261.1294281}
\citation{Weatherspoon:2007:AES:1272996.1273035}
\citation{Weatherspoon:2007:AES:1272996.1273035}
\citation{Weatherspoon:2007:AES:1272996.1273035}
\@writefile{toc}{\contentsline {subsubsection}{\numberline {III-B.5}Load balancing}{8}}
\newlabel{subsubsect:DynamoLoad}{{III-B.5}{8}}
\@writefile{lof}{\contentsline {figure}{\numberline {5}{\ignorespaces Comparison of the load distribution efficiency of different strategies for system with 30 nodes and N=3 with equal amount of metadata maintained at each node. The values of the system size and number of replicas are based on the typical configuration deployed for majority of our services.}}{8}}
\@writefile{toc}{\contentsline {subsubsection}{\numberline {III-B.6}Fault Detection}{8}}
\newlabel{subsubsect:DynamoFault}{{III-B.6}{8}}
\@writefile{toc}{\contentsline {subsection}{\numberline {III-C}Antiquity}{8}}
\newlabel{subsec:Antiquity}{{III-C}{8}}
\@writefile{toc}{\contentsline {subsubsection}{\numberline {III-C.1}Antiquity Architecture}{8}}
\newlabel{subsubsect:AntiquityArch}{{III-C.1}{8}}
\citation{Weatherspoon:2007:AES:1272996.1273035}
\citation{Weatherspoon:2007:AES:1272996.1273035}
\citation{Weatherspoon:2007:AES:1272996.1273035}
\citation{Weatherspoon:2007:AES:1272996.1273035}
\citation{Weatherspoon:2007:AES:1272996.1273035}
\citation{Weatherspoon:2007:AES:1272996.1273035}
\citation{Weatherspoon:2007:AES:1272996.1273035}
\citation{Weatherspoon:2007:AES:1272996.1273035}
\citation{Weatherspoon:2007:AES:1272996.1273035}
\citation{Weatherspoon:2007:AES:1272996.1273035}
\citation{Weatherspoon:2007:AES:1272996.1273035}
\citation{Weatherspoon:2007:AES:1272996.1273035}
\citation{Weatherspoon:2007:AES:1272996.1273035}
\citation{Weatherspoon:2007:AES:1272996.1273035}
\citation{Weatherspoon:2007:AES:1272996.1273035}
\citation{Weatherspoon:2007:AES:1272996.1273035}
\citation{Weatherspoon:2007:AES:1272996.1273035}
\citation{Weatherspoon:2007:AES:1272996.1273035}
\@writefile{toc}{\contentsline {subsubsection}{\numberline {III-C.2}API and Client Access}{9}}
\newlabel{subsubsect:AntiquityAPI}{{III-C.2}{9}}
\@writefile{toc}{\contentsline {subsubsection}{\numberline {III-C.3}Cache Consistency}{9}}
\newlabel{subsubsect:AntiquityCache}{{III-C.3}{9}}
\@writefile{toc}{\contentsline {subsubsection}{\numberline {III-C.4}Replication and Synchronization}{9}}
\newlabel{subsubsect:AntiquitySync}{{III-C.4}{9}}
\@writefile{toc}{\contentsline {subsubsection}{\numberline {III-C.5}Load balancing}{9}}
\newlabel{subsubsect:AntiquityLoad}{{III-C.5}{9}}
\@writefile{toc}{\contentsline {subsubsection}{\numberline {III-C.6}Fault Detection}{9}}
\newlabel{subsubsect:AntiquityFault}{{III-C.6}{9}}
\citation{Lakshman:2010:CDS:1773912.1773922}
\citation{Lakshman:2010:CDS:1773912.1773922}
\citation{Lakshman:2010:CDS:1773912.1773922}
\citation{Lakshman:2010:CDS:1773912.1773922}
\citation{Lakshman:2010:CDS:1773912.1773922}
\citation{Lakshman:2010:CDS:1773912.1773922}
\citation{Lakshman:2010:CDS:1773912.1773922}
\citation{6753779}
\citation{6753779}
\citation{6753779}
\citation{6753779}
\@writefile{lof}{\contentsline {figure}{\numberline {6}{\ignorespaces The repair protocol for Antiquity.}}{10}}
\@writefile{toc}{\contentsline {subsection}{\numberline {III-D}Cassandra}{10}}
\newlabel{subsec:Cassandra}{{III-D}{10}}
\@writefile{toc}{\contentsline {subsubsection}{\numberline {III-D.1}Cassandra Architecture}{10}}
\newlabel{subsubsect:CassandraArch}{{III-D.1}{10}}
\@writefile{toc}{\contentsline {subsubsection}{\numberline {III-D.2}API and Client Access}{10}}
\newlabel{subsubsect:AntiquityAPI}{{III-D.2}{10}}
\@writefile{toc}{\contentsline {subsubsection}{\numberline {III-D.3}Cache Consistency}{10}}
\newlabel{subsubsect:CassandraCache}{{III-D.3}{10}}
\citation{6753779}
\citation{6753779}
\citation{Lakshman:2010:CDS:1773912.1773922}
\citation{Lakshman:2010:CDS:1773912.1773922}
\citation{Lakshman:2010:CDS:1773912.1773922}
\citation{Lakshman:2010:CDS:1773912.1773922}
\citation{Lakshman:2010:CDS:1773912.1773922}
\citation{Lakshman:2010:CDS:1773912.1773922}
\citation{Lakshman:2010:CDS:1773912.1773922}
\citation{Lakshman:2010:CDS:1773912.1773922}
\citation{Lakshman:2010:CDS:1773912.1773922}
\citation{Lakshman:2010:CDS:1773912.1773922}
\citation{Lakshman:2010:CDS:1773912.1773922}
\citation{Lakshman:2010:CDS:1773912.1773922}
\citation{Lakshman:2010:CDS:1773912.1773922}
\citation{846052}
\@writefile{toc}{\contentsline {subsubsection}{\numberline {III-D.4}Replication and Synchronization}{11}}
\newlabel{subsubsect:CassandraSync}{{III-D.4}{11}}
\@writefile{toc}{\contentsline {subsubsection}{\numberline {III-D.5}Load balancing}{11}}
\newlabel{subsubsect:CassandraLoad}{{III-D.5}{11}}
\@writefile{toc}{\contentsline {subsubsection}{\numberline {III-D.6}Fault Detection}{11}}
\newlabel{subsubsect:CassandraFault}{{III-D.6}{11}}
\@writefile{toc}{\contentsline {subsection}{\numberline {III-E}IBM General Parallel File System}{11}}
\newlabel{subsec:IBM}{{III-E}{11}}
\@writefile{toc}{\contentsline {subsubsection}{\numberline {III-E.1}GPFS Architecture}{11}}
\newlabel{subsubsect:GPFSArch}{{III-E.1}{11}}
\citation{846052}
\citation{846052}
\citation{846052}
\citation{846052}
\citation{846052}
\citation{846052}
\citation{846052}
\citation{846052}
\citation{846052}
\citation{846052}
\citation{846052}
\citation{846052}
\citation{846052}
\citation{846052}
\citation{846052}
\citation{846052}
\citation{846052}
\citation{846052}
\citation{846052}
\citation{846052}
\citation{846052}
\@writefile{lof}{\contentsline {figure}{\numberline {7}{\ignorespaces The architecture for GPFS.}}{12}}
\@writefile{toc}{\contentsline {subsubsection}{\numberline {III-E.2}API and Client Access}{12}}
\newlabel{subsubsect:GPFSAPI}{{III-E.2}{12}}
\@writefile{toc}{\contentsline {subsubsection}{\numberline {III-E.3}Cache Consistecny}{12}}
\newlabel{subsubsect:GPFSCache}{{III-E.3}{12}}
\@writefile{toc}{\contentsline {subsubsection}{\numberline {III-E.4}Replication and Synchronization}{12}}
\newlabel{subsubsect:GPFSSync}{{III-E.4}{12}}
\@writefile{toc}{\contentsline {subsubsection}{\numberline {III-E.5}Load balancing}{12}}
\newlabel{subsubsect:GPFSLoad}{{III-E.5}{12}}
\@writefile{toc}{\contentsline {subsubsection}{\numberline {III-E.6}Fault Detection}{12}}
\newlabel{subsubsect:GPFSFault}{{III-E.6}{12}}
\citation{Xia:2010:SBP:2211317.2211361}
\citation{Xia:2010:SBP:2211317.2211361}
\citation{Xia:2010:SBP:2211317.2211361}
\citation{Xia:2010:SBP:2211317.2211361}
\citation{Xia:2010:SBP:2211317.2211361}
\citation{Xia:2010:SBP:2211317.2211361}
\citation{Xia:2010:SBP:2211317.2211361}
\citation{Izal04dissectingbittorrent}
\citation{Xia:2010:SBP:2211317.2211361}
\@writefile{toc}{\contentsline {subsection}{\numberline {III-F}BitTorrent }{13}}
\newlabel{subsec:BitTorrent}{{III-F}{13}}
\@writefile{toc}{\contentsline {subsubsection}{\numberline {III-F.1}BitTorrent Architecture}{13}}
\newlabel{subsubsect:BitTorrentArch}{{III-F.1}{13}}
\@writefile{lof}{\contentsline {figure}{\numberline {8}{\ignorespaces The architecture for BitTorrent.}}{13}}
\@writefile{toc}{\contentsline {subsubsection}{\numberline {III-F.2}API and Client Access}{13}}
\newlabel{subsubsect:BitTorrentAPI}{{III-F.2}{13}}
\@writefile{toc}{\contentsline {subsubsection}{\numberline {III-F.3}Cache Consistency}{13}}
\newlabel{subsubsect:BitTorrentCache}{{III-F.3}{13}}
\@writefile{toc}{\contentsline {subsubsection}{\numberline {III-F.4}Replication and Synchronization}{13}}
\newlabel{subsubsect:BitTorrentSync}{{III-F.4}{13}}
\citation{Izal04dissectingbittorrent}
\citation{Izal04dissectingbittorrent}
\citation{Izal04dissectingbittorrent}
\citation{Izal04dissectingbittorrent}
\citation{Izal04dissectingbittorrent}
\citation{Xia:2010:SBP:2211317.2211361}
\citation{Xia:2010:SBP:2211317.2211361}
\citation{Shvachko:2010:HDF:1913798.1914427}
\citation{Shvachko:2010:HDF:1913798.1914427}
\citation{Shvachko:2010:HDF:1913798.1914427}
\citation{Shvachko:2010:HDF:1913798.1914427}
\citation{Shvachko:2010:HDF:1913798.1914427}
\@writefile{toc}{\contentsline {subsubsection}{\numberline {III-F.5}Load balancing}{14}}
\newlabel{subsubsect:BitLoad}{{III-F.5}{14}}
\@writefile{toc}{\contentsline {subsubsection}{\numberline {III-F.6}Fault Detection}{14}}
\newlabel{subsubsect:BitFault}{{III-F.6}{14}}
\@writefile{toc}{\contentsline {subsection}{\numberline {III-G}Hadoop File System}{14}}
\newlabel{subsec:Hadoop}{{III-G}{14}}
\@writefile{toc}{\contentsline {subsubsection}{\numberline {III-G.1}HDFS Architecture}{14}}
\newlabel{subsubsect:HDFStArch}{{III-G.1}{14}}
\@writefile{toc}{\contentsline {subsubsection}{\numberline {III-G.2}API and Client Access}{14}}
\newlabel{subsubsect:HDFSAPI}{{III-G.2}{14}}
\citation{Shvachko:2010:HDF:1913798.1914427}
\citation{Shvachko:2010:HDF:1913798.1914427}
\citation{Shvachko:2010:HDF:1913798.1914427}
\citation{Shvachko:2010:HDF:1913798.1914427}
\citation{Shvachko:2010:HDF:1913798.1914427}
\citation{Shvachko:2010:HDF:1913798.1914427}
\citation{Shvachko:2010:HDF:1913798.1914427}
\citation{Shvachko:2010:HDF:1913798.1914427}
\citation{Shvachko:2010:HDF:1913798.1914427}
\citation{Shvachko:2010:HDF:1913798.1914427}
\citation{Shvachko:2010:HDF:1913798.1914427}
\citation{Shvachko:2010:HDF:1913798.1914427}
\citation{Shvachko:2010:HDF:1913798.1914427}
\citation{Shvachko:2010:HDF:1913798.1914427}
\@writefile{lof}{\contentsline {figure}{\numberline {9}{\ignorespaces How a client creates a new file in the HDFS.}}{15}}
\@writefile{toc}{\contentsline {subsubsection}{\numberline {III-G.3}Cache Consistency}{15}}
\newlabel{subsubsect:HDFSCache}{{III-G.3}{15}}
\@writefile{toc}{\contentsline {subsubsection}{\numberline {III-G.4}Replication and Synchronization}{15}}
\newlabel{subsubsect:HDFSRep}{{III-G.4}{15}}
\@writefile{toc}{\contentsline {subsubsection}{\numberline {III-G.5}Load balancing}{15}}
\newlabel{subsubsect:HDFSload}{{III-G.5}{15}}
\@writefile{toc}{\contentsline {subsubsection}{\numberline {III-G.6}Fault Detection}{15}}
\newlabel{subsubsect:HDFSFault}{{III-G.6}{15}}
\@writefile{toc}{\contentsline {subsection}{\numberline {III-H}Ceph}{15}}
\newlabel{subsec:Ceph}{{III-H}{15}}
\citation{Weil:2006:CSH:1298455.1298485}
\citation{Weil:2006:CSH:1298455.1298485}
\citation{Weil:2006:CSH:1298455.1298485}
\citation{Weil:2006:CSH:1298455.1298485}
\citation{Weil:2006:CSH:1298455.1298485}
\citation{Weil:2006:CSH:1298455.1298485}
\citation{Weil:2006:CSH:1298455.1298485}
\citation{Weil:2006:CSH:1298455.1298485}
\citation{Weil:2006:CSH:1298455.1298485}
\citation{Weil:2006:CSH:1298455.1298485}
\citation{Weil:2006:CSH:1298455.1298485}
\citation{Weil:2006:CSH:1298455.1298485}
\@writefile{lof}{\contentsline {figure}{\numberline {10}{\ignorespaces Ceph System architecture. Clients perform file I/O by communicating directly with OSDs. Each process can either link directly to a client instance or interact with a mounted file system.}}{16}}
\@writefile{toc}{\contentsline {subsubsection}{\numberline {III-H.1}Ceph Architecture}{16}}
\newlabel{subsubsect:CephArch}{{III-H.1}{16}}
\@writefile{toc}{\contentsline {subsubsection}{\numberline {III-H.2}API and Client Access}{16}}
\newlabel{subsubsect:CephAPI}{{III-H.2}{16}}
\@writefile{toc}{\contentsline {subsubsection}{\numberline {III-H.3}Cache Consistency}{16}}
\newlabel{subsubsect:CephCache}{{III-H.3}{16}}
\@writefile{toc}{\contentsline {subsubsection}{\numberline {III-H.4}Replication and Synchronization}{16}}
\newlabel{subsubsect:CephRep}{{III-H.4}{16}}
\@writefile{toc}{\contentsline {subsubsection}{\numberline {III-H.5}Load balancing}{16}}
\newlabel{subsubsect:Cephload}{{III-H.5}{16}}
\citation{Weil:2006:CSH:1298455.1298485}
\citation{Weil:2006:CSH:1298455.1298485}
\citation{Weil:2006:CSH:1298455.1298485}
\citation{Coulouris:2011:DSC:2029110}
\@writefile{toc}{\contentsline {subsubsection}{\numberline {III-H.6}Fault Detection}{17}}
\newlabel{subsubsect:CephFault}{{III-H.6}{17}}
\@writefile{toc}{\contentsline {section}{\numberline {IV}Comparisons and Analysis}{17}}
\newlabel{sec:comparison}{{IV}{17}}
\@writefile{lof}{\contentsline {figure}{\numberline {11}{\ignorespaces Comparison of non Peer-to-Peer Distributed File Systems.}}{17}}
\@writefile{lof}{\contentsline {figure}{\numberline {12}{\ignorespaces Comparison of Peer-to-Peer Distributed File Systems.}}{17}}
\citation{Chang:2006:BDS:1267308.1267323}
\citation{Chang:2006:BDS:1267308.1267323}
\citation{Chang:2006:BDS:1267308.1267323}
\citation{DeCandia:2007:DAH:1294261.1294281}
\citation{DeCandia:2007:DAH:1294261.1294281}
\citation{DeCandia:2007:DAH:1294261.1294281}
\citation{Weatherspoon:2007:AES:1272996.1273035}
\citation{Weatherspoon:2007:AES:1272996.1273035}
\@writefile{lof}{\contentsline {figure}{\numberline {13}{\ignorespaces Number of 1000-byte values read/written per second for Bigtable. The curves indicate the aggregate rate across all tablet servers.}}{18}}
\@writefile{toc}{\contentsline {subsection}{\numberline {IV-A}Efficency}{18}}
\newlabel{subsubsect:Cephload}{{IV-A}{18}}
\@writefile{lof}{\contentsline {figure}{\numberline {14}{\ignorespaces Dynamo's average and 99.9 percentiles of latencies for read and write requests during peak request season of December 2006.}}{18}}
\citation{6753779}
\citation{Lakshman:2010:CDS:1773912.1773922}
\citation{Rabl:2012:SBD:2367502.2367512}
\citation{Rabl:2012:SBD:2367502.2367512}
\@writefile{lof}{\contentsline {figure}{\numberline {15}{\ignorespaces Antiquity's aggregated write performance.}}{19}}
\@writefile{lof}{\contentsline {figure}{\numberline {16}{\ignorespaces Antiquity's Cumulative Distribution Function of the latency of various operations.}}{19}}
\@writefile{lof}{\contentsline {figure}{\numberline {17}{\ignorespaces Read latency for Cassandra.}}{19}}
\@writefile{lof}{\contentsline {figure}{\numberline {18}{\ignorespaces Write latency for Cassandra.}}{19}}
\citation{846052}
\citation{Xia:2010:SBP:2211317.2211361}
\citation{Xia:2010:SBP:2211317.2211361}
\citation{Xia:2010:SBP:2211317.2211361}
\@writefile{lof}{\contentsline {figure}{\numberline {19}{\ignorespaces Read latency for IBM GPFS.}}{20}}
\@writefile{lof}{\contentsline {figure}{\numberline {20}{\ignorespaces Write latency for IBM GPFS.}}{20}}
\@writefile{lof}{\contentsline {figure}{\numberline {21}{\ignorespaces BitTorrent average download speed of peers.}}{20}}
\@writefile{lof}{\contentsline {figure}{\numberline {22}{\ignorespaces BitTorrent content lifetime versus the number of seeds after 10 days for over 14,000 files.}}{20}}
\citation{Shvachko:2010:HDF:1913798.1914427}
\citation{Shvachko:2010:HDF:1913798.1914427}
\citation{Shvachko:2010:HDF:1913798.1914427}
\citation{Weil:2006:CSH:1298455.1298485}
\citation{Weil:2006:CSH:1298455.1298485}
\@writefile{lof}{\contentsline {figure}{\numberline {23}{\ignorespaces BitTorrent content lifetime versus the number of seeds after 10 days for over 14,000 files.}}{21}}
\@writefile{lof}{\contentsline {figure}{\numberline {24}{\ignorespaces Ceph's per-OSD write performance. The horizontal line indicates the upper limit imposed by the physical disk.}}{21}}
\@writefile{lof}{\contentsline {figure}{\numberline {25}{\ignorespaces Ceph's write latency for varying write sizes and replication.}}{21}}
\@writefile{toc}{\contentsline {section}{\numberline {V}Conclusions}{21}}
\newlabel{sec:conclusions}{{V}{21}}
\bibdata{citations}
\bibcite{Chang:2006:BDS:1267308.1267323}{1}
\bibcite{DeCandia:2007:DAH:1294261.1294281}{2}
\bibcite{Weatherspoon:2007:AES:1272996.1273035}{3}
\bibcite{6753779}{4}
\bibcite{Lakshman:2010:CDS:1773912.1773922}{5}
\bibcite{846052}{6}
\bibcite{Xia:2010:SBP:2211317.2211361}{7}
\bibcite{Shvachko:2010:HDF:1913798.1914427}{8}
\bibcite{Weil:2006:CSH:1298455.1298485}{9}
\bibcite{Levy:1990:DFS:98163.98169}{10}
\bibcite{4623994}{11}
\bibcite{Nelson:1988:CSN:35037.42183}{12}
\bibcite{Baker:Measurements}{13}
\bibcite{balancing}{14}
\bibcite{Coulouris:2011:DSC:2029110}{15}
\bibcite{Izal04dissectingbittorrent}{16}
\bibcite{Rabl:2012:SBD:2367502.2367512}{17}
