<?xml version="1.0" encoding="UTF-8"?>
<session version="1.0">
<refactoring comment="Rename Java project &apos;Ring_Client&apos; to &apos;TokenRing&apos;&#x0A;- Original element: &apos;Ring_Client&apos;&#x0A;- Renamed element: &apos;Ring_Client&apos;&#x0A;- Update references to refactored element" description="Rename Java project &apos;Ring_Client&apos;" flags="7" id="org.eclipse.jdt.ui.rename.java.project" input="=Ring_Client" name="TokenRing" references="true" stamp="1496014646528" version="1.0"/>
</session>